<svg xmlns="http://www.w3.org/2000/svg" xmlns:xlink="http://www.w3.org/1999/xlink" width="100.805" height="100.805" viewBox="0 0 100.805 100.805">
  <defs>
    <linearGradient id="linear-gradient" y1="0.5" x2="1" y2="0.5" gradientUnits="objectBoundingBox">
      <stop offset="0" stop-color="#fe9900"/>
      <stop offset="1" stop-color="#e2701e"/>
    </linearGradient>
  </defs>
  <g id="productreturn" transform="translate(-184.333 -2737.297)">
    <circle id="Ellipse_1" data-name="Ellipse 1" cx="50.403" cy="50.403" r="50.403" transform="translate(184.333 2737.297)" fill="url(#linear-gradient)"/>
    <path id="Path_16" data-name="Path 16" d="M254.114,2790.341a7.787,7.787,0,0,0,1.32-4.393,6.994,6.994,0,0,0-6.9-6.874h-4.744a11.839,11.839,0,0,0,1.294-5.175,11.174,11.174,0,0,0-.944-5.013,5.928,5.928,0,0,0-2.749-2.736,9.2,9.2,0,0,0-4.07-.875,3.417,3.417,0,0,0-2.425,1,6.477,6.477,0,0,0-1.671,2.911q-.513,1.779-.822,3.409a4.582,4.582,0,0,1-.957,2.3q-1.321,1.428-2.884,3.45a23.863,23.863,0,0,1-3.692,4.177h-7.385a3.452,3.452,0,0,0-3.45,3.45v17.249a3.452,3.452,0,0,0,3.45,3.45h7.762a19.988,19.988,0,0,1,3.719,1.078q3.315,1.159,5.835,1.766a21.778,21.778,0,0,0,5.108.607h3.476a8.589,8.589,0,0,0,6.118-2.171,128.546,128.546,0,0,0,3.908-10.713,8.037,8.037,0,0,0-.081-1.159,7.734,7.734,0,0,0,1.025-3.881A7.014,7.014,0,0,0,254.114,2790.341Zm-33.689,12.371a1.693,1.693,0,1,1,.512-1.214A1.659,1.659,0,0,1,220.425,2802.712Zm30.981-14.553q-.579,1.239-1.442,1.266a3.641,3.641,0,0,1,.674,1.28,4.838,4.838,0,0,1,.269,1.5,4.26,4.26,0,0,1-1.428,3.207,3.726,3.726,0,0,1,.485,1.86,4.545,4.545,0,0,1-.471,1.98,3,3,0,0,1-1.28,1.415,9.186,9.186,0,0,1,.134,1.509q0,4.5-5.175,4.5h-3.26a29.773,29.773,0,0,1-9.218-1.968c-.09-.036-.35-.13-.782-.283s-.75-.265-.957-.336-.521-.176-.943-.31-.764-.234-1.024-.3-.557-.121-.889-.175a5.446,5.446,0,0,0-.849-.081h-.863v-17.248h.863a2.317,2.317,0,0,0,.956-.242,4.555,4.555,0,0,0,1.078-.728q.554-.486,1.038-.957a15.342,15.342,0,0,0,1.078-1.186q.594-.714.93-1.145t.849-1.1q.512-.675.62-.809,1.482-1.833,2.075-2.453a6.847,6.847,0,0,0,1.6-2.951q.5-1.792.821-3.382a4.462,4.462,0,0,1,1.025-2.291q2.587,0,3.45,1.266a7.047,7.047,0,0,1,.862,3.908,11.022,11.022,0,0,1-1.294,4.326,10.982,10.982,0,0,0-1.293,4.3h9.486a3.575,3.575,0,0,1,3.451,3.45A5.282,5.282,0,0,1,251.406,2788.159Z" fill="#fff"/>
  </g>
</svg>
